{
	"_id":"507f191e810c19729de860ea",
	"title":"Intro to Database Management",
	"descritption":"Learn How to Plan and Efficiently manage data stored in a database",
	"price":3000,
	"isActive": true,
	"slots":30,
	"enrolles":[]
}