{
	"_id":"618f192e820c19759de840ea",
	"userID":"507f1f77bcf86cd799439011",
	"courseID":"507f191e810c19729de860ea",
	"isPaid":true,
	"paymentMethod":"cash",
	"dateTimeCreated":"2020-03-10T15:00:00.00Z"


}